<?xml version="1.0" encoding="utf-8"?>
<!-- Generator: Adobe Illustrator 16.0.0, SVG Export Plug-In . SVG Version: 6.00 Build 0)  -->
<!DOCTYPE svg PUBLIC "-//W3C//DTD SVG 1.1//EN" "http://www.w3.org/Graphics/SVG/1.1/DTD/svg11.dtd">
<svg version="1.1" id="Layer_1" xmlns="http://www.w3.org/2000/svg" xmlns:xlink="http://www.w3.org/1999/xlink" x="0px" y="0px"
	 width="89.238px" height="89.604px" viewBox="0 0 89.238 89.604" enable-background="new 0 0 89.238 89.604" xml:space="preserve">
<g>
	<defs>
		<rect id="SVGID_1_" width="89.238" height="89.604"/>
	</defs>
	<clipPath id="SVGID_2_">
		<use xlink:href="#SVGID_1_"  overflow="visible"/>
	</clipPath>
	<path clip-path="url(#SVGID_2_)" fill="#ce0886" d="M66.936,0H22.302C10.005,0,0,10.005,0,22.302v45
		c0,12.296,10.005,22.302,22.302,22.302h44.634c12.298,0,22.303-10.006,22.303-22.302v-45C89.238,10.005,79.233,0,66.936,0
		 M22.302,8.26h44.634c7.743,0,14.042,6.299,14.042,14.042v7.676H57.334c-3.464-2.467-7.692-3.924-12.259-3.924
		c-4.567,0-8.796,1.457-12.26,3.924H8.259v-7.676C8.259,14.559,14.559,8.26,22.302,8.26 M53.869,47.237
		c0,4.851-3.944,8.795-8.793,8.795c-4.85,0-8.794-3.944-8.794-8.795c0-4.848,3.945-8.793,8.794-8.793
		C49.924,38.444,53.869,42.39,53.869,47.237 M66.936,81.345H22.302c-7.743,0-14.042-6.301-14.042-14.042V38.238h17.645
		c-1.288,2.734-2.013,5.783-2.013,8.999c0,11.684,9.503,21.186,21.185,21.186c11.681,0,21.184-9.502,21.184-21.186
		c0-3.216-0.725-6.265-2.013-8.999h16.729v29.064C80.978,75.044,74.679,81.345,66.936,81.345"/>
	<path clip-path="url(#SVGID_2_)" fill="#ce0886" d="M74.505,23.405c0,1.363-1.115,2.478-2.478,2.478H64.37
		c-1.363,0-2.479-1.115-2.479-2.478v-7.657c0-1.363,1.114-2.478,2.479-2.478h7.657c1.361,0,2.478,1.115,2.478,2.478V23.405z"/>
</g>
</svg>
